{
  "_class": "group",
  "do_objectID": "7D1D5788-5B09-4B68-8BBB-8AC776E268FD",
  "exportOptions": {
    "_class": "exportOptions",
    "exportFormats": [
    ],
    "includedLayerIds": [
    ],
    "layerOptions": 0,
    "shouldTrim": false
  },
  "frame": {
    "_class": "rect",
    "constrainProportions": false,
    "height": 1587,
    "width": 1459,
    "x": 343,
    "y": 143
  },
  "hasClickThrough": false,
  "isFlippedHorizontal": false,
  "isFlippedVertical": false,
  "isLocked": false,
  "isVisible": true,
  "layerListExpandedType": 0,
  "layers": [
    {
      "class": "group",
      "id": "037D4F8C-4116-4334-AE46-D616CC7C64D5"
    },
    {
      "class": "symbolInstance",
      "id": "2D1642DD-48F1-4D20-A292-F99A32DFDF57"
    },
    {
      "class": "symbolInstance",
      "id": "D5FA2537-1F96-4C06-BE4F-E0355719553B"
    },
    {
      "class": "symbolInstance",
      "id": "0E3F48E0-3EF8-4FF8-B16E-0752854BD31A"
    },
    {
      "class": "symbolInstance",
      "id": "677C3B41-E33E-455C-99CA-C2DFD261A2FD"
    },
    {
      "class": "symbolInstance",
      "id": "EC73EBFB-0102-4A2D-8B37-F019F6923763"
    },
    {
      "class": "symbolInstance",
      "id": "897D6D97-D749-4379-AF95-666FD6BD64D8"
    },
    {
      "class": "symbolInstance",
      "id": "4D2B7C05-A102-4D01-B5A5-E2913F61F85C"
    },
    {
      "class": "symbolInstance",
      "id": "91E8B761-8427-4E75-AAC1-78BF01C3327E"
    },
    {
      "class": "symbolInstance",
      "id": "9920B434-FA35-4523-AF76-5967F62305A9"
    },
    {
      "class": "symbolInstance",
      "id": "1A34D6E7-5663-43F8-92B9-F05BAE7C6801"
    },
    {
      "class": "symbolInstance",
      "id": "C5107FD6-4DD6-4366-AB96-62D04A506A8C"
    },
    {
      "class": "symbolInstance",
      "id": "5EC0F3AC-AEEF-42E5-B2E3-CD3A73EAC133"
    },
    {
      "class": "symbolInstance",
      "id": "D4441728-C1B9-413F-9F64-330CF232D801"
    },
    {
      "class": "symbolInstance",
      "id": "17888152-58C4-40AB-933B-6067FB54CE3D"
    },
    {
      "class": "symbolInstance",
      "id": "1662B376-4E78-41B9-A3D3-6D755B2DEC86"
    },
    {
      "class": "symbolInstance",
      "id": "A096BB5E-D2CD-4042-A8C3-C790B0DE1CFA"
    },
    {
      "class": "symbolInstance",
      "id": "985E8300-23C5-45DB-A130-02FC7F82D8C3"
    },
    {
      "class": "symbolInstance",
      "id": "7E39D1C2-BBB0-4999-9043-D3059C3154E4"
    },
    {
      "class": "symbolInstance",
      "id": "57A62727-B168-4E0A-B753-DF380CFD9F42"
    },
    {
      "class": "symbolInstance",
      "id": "12911D0F-20F6-4354-B25C-B93FC8D5285B"
    },
    {
      "class": "symbolInstance",
      "id": "42C63D2E-8EAE-4A44-8079-D1D0D54DDFAA"
    },
    {
      "class": "symbolInstance",
      "id": "80916D29-5CE6-4B77-A705-C4C837338027"
    },
    {
      "class": "symbolInstance",
      "id": "6B351BE7-0340-4130-BE81-E7257FF56FCF"
    },
    {
      "class": "symbolInstance",
      "id": "28D0252F-2114-4AD1-891C-2A2758EA7C0D"
    },
    {
      "class": "symbolInstance",
      "id": "570B48D9-DDFB-4C80-9098-5A66A8815BD0"
    },
    {
      "class": "symbolInstance",
      "id": "054E46CC-718B-450E-ACA1-40B51262B736"
    },
    {
      "class": "symbolInstance",
      "id": "0E354844-DBC4-499F-B9D6-C4CE94CB2952"
    },
    {
      "class": "symbolInstance",
      "id": "F28AC194-1CE9-43B5-B981-2B9E6D5B1521"
    },
    {
      "class": "symbolInstance",
      "id": "BA6A4EC8-6849-4522-B088-36805F7DDE44"
    },
    {
      "class": "symbolInstance",
      "id": "44209F65-7F2D-40D0-AFBA-A99DB9D27B5B"
    },
    {
      "class": "symbolInstance",
      "id": "DCB2B4E7-89D1-47A4-B157-57316071D73E"
    },
    {
      "class": "symbolInstance",
      "id": "431C0265-CDC3-457A-8851-B04C39306172"
    },
    {
      "class": "symbolInstance",
      "id": "819C9090-513B-4EE2-AC0C-D99B17B7CDBE"
    },
    {
      "class": "symbolInstance",
      "id": "ED3E41AC-6486-4005-8143-82E837C00697"
    },
    {
      "class": "symbolInstance",
      "id": "F119A3DB-13C2-4B84-8675-26A19A6B349C"
    },
    {
      "class": "symbolInstance",
      "id": "AF62BC22-EAD1-4724-9B64-CA044816ED5F"
    },
    {
      "class": "symbolInstance",
      "id": "763AE0D4-EECA-4E63-A9BF-47F258CCBD14"
    },
    {
      "class": "symbolInstance",
      "id": "A7A951DB-5E97-4C82-8C50-0BEB351CA52C"
    },
    {
      "class": "symbolInstance",
      "id": "CB4A596E-DEE9-45A5-BF39-523A64EFD1AD"
    },
    {
      "class": "symbolInstance",
      "id": "6FEBB60E-8F39-4521-8B7E-D8B59E55E5EF"
    },
    {
      "class": "symbolInstance",
      "id": "2B56A70F-35FC-474E-A1BC-4B85826F24B0"
    },
    {
      "class": "symbolInstance",
      "id": "B9F14EFC-0A4C-417D-8AD9-E5952FFD654D"
    },
    {
      "class": "symbolInstance",
      "id": "6AAAB898-E27B-4459-869A-3C2F837A8894"
    },
    {
      "class": "symbolInstance",
      "id": "32DD7EA5-5DF3-44BF-A4AD-1977130F365A"
    },
    {
      "class": "symbolInstance",
      "id": "9854BAB6-063B-4992-8BD3-83B249B1B31E"
    },
    {
      "class": "symbolInstance",
      "id": "4C150307-BFF6-4B1E-8C03-FFD640D91799"
    },
    {
      "class": "symbolInstance",
      "id": "4FF50606-BE9B-4BC5-B3E1-B3AE6C497D1B"
    },
    {
      "class": "symbolInstance",
      "id": "E6872B44-1BB0-456C-8BB9-EFA16F8CF133"
    },
    {
      "class": "symbolInstance",
      "id": "A3C10CD3-C47C-4F3B-A5A5-C6AB2B79769C"
    },
    {
      "class": "symbolInstance",
      "id": "77290969-8553-4B14-9EFC-687623367139"
    },
    {
      "class": "symbolInstance",
      "id": "2B4495CB-C705-435C-8CAA-0B8B4CDF4B09"
    },
    {
      "class": "symbolInstance",
      "id": "0692BCCB-2F28-4D31-916A-A290FDBDABFF"
    },
    {
      "class": "symbolInstance",
      "id": "1E553991-D386-4B93-A923-4681E6933B9C"
    },
    {
      "class": "symbolInstance",
      "id": "DFD59EEF-DB97-4F3F-9317-6FA09ACFEB36"
    }
  ],
  "name": "weekenddays",
  "nameIsFixed": true,
  "resizingConstraint": 63,
  "resizingType": 0,
  "rotation": 0,
  "shouldBreakMaskChain": false,
  "style": {
    "_class": "style",
    "endDecorationType": 0,
    "miterLimit": 10,
    "startDecorationType": 0
  }
}