{
  "_class": "group",
  "do_objectID": "5C50F7A8-8869-4212-834D-79534211483F",
  "exportOptions": {
    "_class": "exportOptions",
    "exportFormats": [
    ],
    "includedLayerIds": [
    ],
    "layerOptions": 0,
    "shouldTrim": false
  },
  "frame": {
    "_class": "rect",
    "constrainProportions": false,
    "height": 51,
    "width": 101,
    "x": 111,
    "y": 0
  },
  "hasClickThrough": false,
  "isFlippedHorizontal": false,
  "isFlippedVertical": false,
  "isLocked": false,
  "isVisible": true,
  "layerListExpandedType": 0,
  "layers": [
    {
      "class": "shapeGroup",
      "id": "5B517D06-DA72-4BF7-8836-C9BFFC59F0AE"
    },
    {
      "class": "shapeGroup",
      "id": "7160095D-77D5-4D6D-BCE1-71D4FBEC58B6"
    },
    {
      "class": "shapeGroup",
      "id": "FBD75559-4F4D-4CB8-A998-E9B2AB9E3167"
    },
    {
      "class": "shapeGroup",
      "id": "87F5A08E-4582-4DA4-B6BF-9AE3410E810C"
    },
    {
      "class": "shapeGroup",
      "id": "F1CA1068-0890-495D-AC26-C972135EEA7D"
    },
    {
      "class": "group",
      "id": "528F4BE4-0DA0-4C72-872E-2FBB556E831D"
    },
    {
      "class": "text",
      "id": "A059F36B-043C-40BB-8862-022692D50091"
    }
  ],
  "name": "closed",
  "nameIsFixed": true,
  "resizingConstraint": 41,
  "resizingType": 1,
  "rotation": 0,
  "shouldBreakMaskChain": false,
  "style": {
    "_class": "style",
    "endDecorationType": 0,
    "miterLimit": 10,
    "startDecorationType": 0
  }
}